osm_id#name#type#geometry
291830571##civic#POLYGON((459324.60575612413 1764406.2991246253,459325.54877312435 1764403.3497618793,459325.78115854546 1764402.3647211988,459326.245708357 1764401.5082342506,459330.93054957566 1764402.6084637064,459329.7828032989 1764407.433132944,459324.60575612413 1764406.2991246253))
291830587##yes#POLYGON((459021.69800313935 1764379.4892482073,459023.7183091828 1764370.7589625465,459029.9723701848 1764372.0695756443,459028.04124672327 1764381.1319819572,459027.6294429252 1764381.02964733,459022.10980713746 1764379.591582458,459021.69800313935 1764379.4892482073))
291830562##yes#POLYGON((459350.3139244098 1764401.2492126292,459352.6791917697 1764393.2910123179,459353.34147462295 1764393.610609031,459358.9623589866 1764395.937613699,459356.4260391699 1764403.565474331,459350.3139244098 1764401.2492126292))
291830545##yes#POLYGON((459334.93822817184 1764409.8259742702,459338.16114117776 1764403.6307579954,459340.31903534697 1764404.9198804994,459338.43440950144 1764408.6359352688,459337.1731257865 1764410.8906939097,459334.93822817184 1764409.8259742702))
291830589##yes#POLYGON((459338.43440950144 1764408.6359352688,459340.31903534697 1764404.9198804994,459342.0472194636 1764401.5413237745,459347.67296869284 1764404.090929872,459346.5632574989 1764405.785577836,459343.90127658634 1764411.4117298578,459338.43440950144 1764408.6359352688))
291830472##yes#POLYGON((459276.2161236971 1764380.2638721163,459279.12367913063 1764374.6323174604,459286.7363413168 1764378.14063875,459283.74690813245 1764383.773980727,459276.2161236971 1764380.2638721163))
291830487##yes#POLYGON((459331.01607684116 1764432.7403224658,459331.72128558427 1764431.277235289,459334.1296567104 1764432.7835957888,459333.3377074776 1764434.0258615962,459331.01607684116 1764432.7403224658))
291830585##yes#POLYGON((459328.65550091385 1764429.673892939,459332.4198624479 1764422.019168038,459343.96562144405 1764429.3391109277,459339.28605366277 1764436.3456869524,459334.1296567104 1764432.7835957888,459331.72128558427 1764431.277235289,459328.65550091385 1764429.673892939))
291830576##yes#POLYGON((460490.35442268266 1764462.6487654545,460490.4843711934 1764461.08692911,460490.60707795207 1764459.1911744904,460496.6776696212 1764459.616313957,460496.35520847875 1764463.6322106014,460490.3664924289 1764463.205295862,460490.35442268266 1764462.6487654545))
291830541##yes#POLYGON((460488.7964429809 1764462.5711958734,460488.9263911169 1764461.009359495,460490.4843711934 1764461.08692911,460490.35442268266 1764462.6487654545,460488.7964429809 1764462.5711958734))
291830516##yes#POLYGON((460058.7135170961 1764368.6502238833,460061.6769932003 1764361.7928757342,460073.1759984533 1764366.9993154516,460069.7236959811 1764373.9786496628,460058.7135170961 1764368.6502238833))
291830467##yes#POLYGON((459906.85236226174 1764229.6390655776,459918.05656448903 1764225.052080507,459920.38837294804 1764230.5692487936,459909.2612058567 1764234.9318344,459906.85236226174 1764229.6390655776))
291830608##yes#POLYGON((458997.24750183 1764407.5308347803,458997.1976283039 1764401.5185373405,459000.31122902944 1764401.5616491847,459000.3331862302 1764402.5633996893,459005.5730355653 1764402.448550448,459005.6643744953 1764410.3530432074,458998.9508257981 1764410.5001944723,458998.8849534731 1764407.4949431499,458997.24750183 1764407.5308347803))
291830461##yes#POLYGON((458993.2357453428 1764407.6187710392,458993.1858680685 1764401.6064736291,458997.1976283039 1764401.5185373405,458997.24750183 1764407.5308347803,458993.2357453428 1764407.6187710392))
291830539##yes#POLYGON((459021.2053901693 1764383.1748943117,459022.10980713746 1764379.591582458,459027.6294429252 1764381.02964733,459026.806896013 1764384.6111641424,459021.2053901693 1764383.1748943117))
291830457##yes#POLYGON((459341.6568407507 1764421.1490333765,459348.803021809 1764407.0729130092,459355.9438397444 1764411.482501613,459347.9043537441 1764425.9122219994,459341.6568407507 1764421.1490333765))
291830604##yes#POLYGON((459027.7900088774 1764369.6675002114,459028.64564799296 1764363.858075689,459030.36986219866 1764364.0430091943,459030.65832833573 1764362.2549419447,459042.0923544883 1764364.4542874391,459040.38244050095 1764372.3982520192,459030.2583965975 1764370.1702028497,459027.7900088774 1764369.6675002114))
291830597##yes#POLYGON((459040.04935177846 1764360.935562978,459040.28033740364 1764360.2623468363,459041.3509541064 1764356.7867545614,459043.7447890936 1764357.6251734786,459042.67173232435 1764360.9894596604,459043.16784923634 1764361.2013069298,459043.0162975759 1764361.7614232835,459040.04935177846 1764360.935562978))
291830599##yes#POLYGON((459015.14771061856 1764360.92447324,459017.2387567401 1764355.4220483843,459017.89862143714 1764355.6303050455,459020.79101743805 1764356.7918664694,459022.1950587825 1764357.3178919666,459021.17217523896 1764359.23341389,459019.69220405316 1764362.7179809783,459015.14771061856 1764360.92447324))
291830477##yes#POLYGON((459017.89862143714 1764355.6303050455,459018.584254147 1764353.2767371521,459021.63795826776 1764354.3234046744,459020.79101743805 1764356.7918664694,459017.89862143714 1764355.6303050455))
291830475##yes#POLYGON((459006.2739887554 1764352.2102289968,459006.66139913385 1764351.1995056514,459009.38273411663 1764352.0307339537,459009.0796361655 1764353.1509683507,459006.2739887554 1764352.2102289968))
291830612##yes#POLYGON((459001.98213252425 1764358.2063321897,459002.95377845253 1764353.953388351,459005.01280800375 1764354.4650539965,459005.2841905721 1764351.8978458105,459006.2739887554 1764352.2102289968,459009.0796361655 1764353.1509683507,459011.96715599694 1764354.0899145128,459010.53841788764 1764359.9119027075,459001.98213252425 1764358.2063321897))
291830437##yes#POLYGON((458986.8458882498 1764377.691882183,458988.15368918836 1764370.0907941076,458993.00127829704 1764370.7640476536,458992.7849368511 1764372.105099269,458998.7041923269 1764373.088943663,458997.7813471132 1764379.568000108,458999.09863322595 1764379.87320378,458997.69919014536 1764387.0308610392,458989.3091223291 1764385.4330242807,458990.62912344286 1764378.3884653905,458986.8458882498 1764377.691882183))
291830583##yes#POLYGON((459047.9555148377 1764362.878146928,459048.28056859225 1764362.7596654827,459050.9374382777 1764356.9107771039,459051.64990946196 1764355.7815752148,459062.2969087346 1764359.4458695324,459059.66929378395 1764366.6304210986,459047.9555148377 1764362.878146928))
291830546##yes#POLYGON((459049.94764312357 1764356.598387064,459051.25656915107 1764352.783497537,459052.74004322826 1764353.1964301325,459051.64990946196 1764355.7815752148,459050.9374382777 1764356.9107771039,459049.94764312357 1764356.598387064))
291830616##yes#POLYGON((459042.67173232435 1764360.9894596604,459043.7447890936 1764357.6251734786,459044.66629506275 1764354.8210037271,459049.94764312357 1764356.598387064,459050.9374382777 1764356.9107771039,459048.28056859225 1764362.7596654827,459047.9555148377 1764362.878146928,459043.16784923634 1764361.2013069298,459042.67173232435 1764360.9894596604))
291830459##yes#POLYGON((459188.79584568925 1764375.6066790698,459192.0186382525 1764369.4113875683,459200.8911222711 1764374.3397001524,459197.3408322374 1764380.5421551098,459188.79584568925 1764375.6066790698))
291830601##yes#POLYGON((459185.6091799631 1764353.5159834486,459185.532682884 1764346.2793188374,459190.36077485135 1764346.0622753226,459195.0299929371 1764346.0714310545,459195.1907889103 1764353.4176094346,459191.2608719582 1764353.5036301676,459187.6608845643 1764353.6937903403,459185.6091799631 1764353.5159834486))
291830605#Église Saint-Pierre-aux-Liens#church#POLYGON((459373.0022178403 1764251.309392161,459375.51356487593 1764250.029543666,459374.39323243254 1764247.492775263,459378.537207755 1764245.9545204402,459383.9702395375 1764258.4193351555,459377.3968016817 1764261.2356432667,459375.5947113029 1764257.4888282176,459373.0022178403 1764251.309392161))
291830530##yes#POLYGON((459391.07604450465 1764321.181872658,459405.23532625183 1764320.649679,459405.6342045864 1764327.656578302,459391.8867391029 1764328.2911290252,459391.07604450465 1764321.181872658))
291830482##yes#POLYGON((459435.67228235316 1764405.2854886127,459437.33080383524 1764402.4652753973,459441.57197448745 1764405.3792938385,459439.91101988556 1764408.0882001226,459435.67228235316 1764405.2854886127))
291830613##yes#POLYGON((459300.294334851 1764391.3185192542,459300.7417507516 1764389.3042717003,459302.1433264551 1764389.719052357,459302.3670347211 1764388.7119286319,459304.589773025 1764389.2201085119,459303.0019044135 1764395.2682224507,459300.94291352795 1764394.7564616934,459301.6934756777 1764391.6219940754,459300.294334851 1764391.3185192542))
291830520##yes#POLYGON((459305.8994823983 1764377.9442060837,459307.64469706547 1764375.344779532,459313.88254188106 1764379.6627141696,459312.1324573956 1764382.0395274449,459305.8994823983 1764377.9442060837))
291830448##yes#POLYGON((459299.96747764933 1764383.8646166092,459305.4852487982 1764377.7305479315,459305.8994823983 1764377.9442060837,459312.1324573956 1764382.0395274449,459319.61055640393 1764386.8871373914,459320.19981705357 1764383.867558452,459322.9089245199 1764384.1423903112,459322.49890008615 1764391.6124081134,459317.6489322549 1764390.8276008172,459315.26488426735 1764390.4343032637,459315.3872478371 1764388.53852465,459307.5250225099 1764388.5991159703,459299.96747764933 1764383.8646166092))
291830590##yes#POLYGON((459319.9192318454 1764378.5284635848,459320.98269255937 1764374.7190013248,459322.9549468546 1764375.0099475328,459322.8106736968 1764375.9039744553,459322.74340534606 1764376.5735994207,459321.4845544293 1764378.939667525,459319.9192318454 1764378.5284635848))
291830544##yes#POLYGON((459329.3226661406 1764389.0132873603,459331.03292952036 1764381.069401176,459336.14555865555 1764382.627988045,459335.06349900924 1764389.333187196,459329.3226661406 1764389.0132873603))
291830436##yes#POLYGON((459321.94990394264 1764381.4907474113,459322.74340534606 1764376.5735994207,459322.8106736968 1764375.9039744553,459331.4754879242 1764378.8325440828,459331.03292952036 1764381.069401176,459329.3226661406 1764389.0132873603,459329.03168489947 1764390.6900349534,459323.33621412585 1764388.698763971,459324.03323806426 1764383.1155724227,459324.2545159281 1764381.9971436553,459321.94990394264 1764381.4907474113))
291830603##yes#POLYGON((459344.52929592744 1764398.9257959726,459347.0583027473 1764390.9640130836,459349.45451658766 1764391.9138511426,459350.5285972605 1764392.3358027744,459352.6791917697 1764393.2910123179,459350.3139244098 1764401.2492126292,459346.8436345699 1764399.8774231637,459344.52929592744 1764398.9257959726))
291830584##yes#POLYGON((459351.63344472833 1764390.418543802,459355.58837294 1764383.9846130037,459364.7233594194 1764389.6869208114,459358.9623589866 1764395.937613699,459353.34147462295 1764393.610609031,459353.9502188401 1764391.481479372,459351.63344472833 1764390.418543802))
291830524##yes#POLYGON((459343.79692957643 1764376.6700167786,459347.30929434166 1764372.4729365124,459354.25720202 1764375.550435789,459350.1911930867 1764380.6504889,459343.79692957643 1764376.6700167786))
291830537##yes#POLYGON((459357.652064552 1764373.4717508173,459359.9996139442 1764372.1954776056,459361.1945051879 1764374.3965334143,459359.25632132555 1764375.6638562232,459357.652064552 1764373.4717508173))
291830554##yes#POLYGON((459353.91337235866 1764367.3173890384,459365.1550306814 1764360.7241521252,459368.8912822459 1764366.7672150119,459359.9996139442 1764372.1954776056,459357.652064552 1764373.4717508173,459353.91337235866 1764367.3173890384))
291830580##yes#POLYGON((459321.36660175095 1764358.563551698,459326.333208914 1764353.4437848479,459329.43067144026 1764356.494102296,459336.2181707975 1764363.4726555871,459331.485013491 1764368.0305145117,459330.8227269279 1764367.7109199679,459321.36660175095 1764358.563551698))
291830490##yes#POLYGON((459318.23374501267 1764368.8770919756,459320.29672304774 1764365.8252835856,459322.6256817726 1764367.4447369298,459320.478396006 1764370.3870292483,459318.23374501267 1764368.8770919756))
291830535##yes#POLYGON((459212.4491861999 1764400.9242555108,459213.15098452324 1764395.5636638217,459219.72272637335 1764396.4220708148,459218.9414859745 1764401.8957592002,459212.4491861999 1764400.9242555108))
291830610##yes#POLYGON((459344.591586744 1764439.2363675938,459350.16844744724 1764428.3126145164,459352.2371579219 1764429.2696136935,459353.031544973 1764428.138655878,459355.43504496483 1764429.4224129666,459354.8044022441 1764430.5497903852,459356.62992800184 1764431.6234667986,459350.646132533 1764442.6674701113,459344.591586744 1764439.2363675938))
291830533##yes#POLYGON((459336.963750797 1764442.52120786,459338.67001757654 1764438.140900074,459347.6963019953 1764442.6206085365,459345.895989715 1764446.446175448,459336.963750797 1764442.52120786))
291830469##yes#POLYGON((459771.27108658757 1764473.2395230485,459775.59025591845 1764468.468303925,459780.187828326 1764472.7110746545,459775.78436063434 1764477.3727693853,459771.27108658757 1764473.2395230485))
291830531##yes#POLYGON((459721.60911443864 1764490.9147588077,459724.41151046613 1764487.9583209057,459727.5062911556 1764490.8975202143,459724.788193753 1764493.9634771335,459721.60911443864 1764490.9147588077))
291830549##yes#POLYGON((459538.51662627026 1764272.3036507277,459545.0917964911 1764265.8126239418,459548.1705035933 1764271.7587909268,459542.90046376444 1764277.9985998445,459541.85311075585 1764278.8009808683,459538.51662627026 1764272.3036507277))
291830495##yes#POLYGON((459199.12277299666 1764132.6176871164,459199.27826362953 1764128.4939908665,459202.14636436757 1764128.5425767053,459201.99330800865 1764132.777578832,459199.12277299666 1764132.6176871164))
291830434##yes#POLYGON((459185.38695532875 1764171.2259218493,459189.6294254989 1764159.2176197928,459193.5911324987 1764160.5785750258,459191.8176240794 1764165.6285596837,459193.0555040662 1764166.0469017075,459193.13250717823 1764165.822497781,459198.66446360573 1764167.8172418196,459195.3435828958 1764177.0213845072,459191.95745127444 1764175.7591894823,459192.6529142532 1764173.8508601105,459185.38695532875 1764171.2259218493))
(52 lignes)
